M48
;DRILL file {KiCad 4.0.2-stable} date 5/11/2017 12:11:18 PM
;FORMAT={-:-/ absolute / inch / decimal}
FMAT,2
INCH,TZ
T1C0.024
T2C0.035
T3C0.040
T4C0.043
T5C0.118
%
G90
G05
M72
T1
X6.0372Y-4.1
X6.0372Y-4.225
X6.3128Y-4.1
X6.3128Y-4.225
T2
X5.79Y-4.1
X5.79Y-4.2
T3
X5.7569Y-3.8159
X5.7569Y-3.9341
X5.875Y-3.8159
X5.875Y-3.9341
X5.9931Y-3.8159
X5.9931Y-3.9341
X6.29Y-3.595
X6.29Y-3.695
X6.29Y-3.795
X6.29Y-3.895
T4
X5.7Y-4.3691
X5.7Y-4.625
X5.8772Y-4.3691
X5.8772Y-4.625
X6.125Y-4.3691
X6.125Y-4.625
X6.3022Y-4.3691
X6.3022Y-4.625
T5
X5.875Y-3.6459
T0
M30
