G04 #@! TF.FileFunction,Legend,Bot*
%FSLAX46Y46*%
G04 Gerber Fmt 4.6, Leading zero omitted, Abs format (unit mm)*
G04 Created by KiCad (PCBNEW 4.0.2-stable) date 5/11/2017 12:11:14 PM*
%MOMM*%
G01*
G04 APERTURE LIST*
%ADD10C,0.150000*%
%ADD11C,0.200000*%
%ADD12C,0.250000*%
G04 APERTURE END LIST*
D10*
D11*
X154358857Y-93266286D02*
X155558857Y-93552000D01*
X154701714Y-93780571D01*
X155558857Y-94009143D01*
X154358857Y-94294857D01*
X155558857Y-94752000D02*
X154758857Y-94752000D01*
X154358857Y-94752000D02*
X154416000Y-94694857D01*
X154473143Y-94752000D01*
X154416000Y-94809143D01*
X154358857Y-94752000D01*
X154473143Y-94752000D01*
X154930286Y-95723429D02*
X154930286Y-95323429D01*
X155558857Y-95323429D02*
X154358857Y-95323429D01*
X154358857Y-95894858D01*
X155558857Y-96352000D02*
X154758857Y-96352000D01*
X154358857Y-96352000D02*
X154416000Y-96294857D01*
X154473143Y-96352000D01*
X154416000Y-96409143D01*
X154358857Y-96352000D01*
X154473143Y-96352000D01*
X154930286Y-98237715D02*
X154987429Y-98409144D01*
X155044571Y-98466287D01*
X155158857Y-98523430D01*
X155330286Y-98523430D01*
X155444571Y-98466287D01*
X155501714Y-98409144D01*
X155558857Y-98294858D01*
X155558857Y-97837715D01*
X154358857Y-97837715D01*
X154358857Y-98237715D01*
X154416000Y-98352001D01*
X154473143Y-98409144D01*
X154587429Y-98466287D01*
X154701714Y-98466287D01*
X154816000Y-98409144D01*
X154873143Y-98352001D01*
X154930286Y-98237715D01*
X154930286Y-97837715D01*
X155558857Y-99209144D02*
X155501714Y-99094858D01*
X155387429Y-99037715D01*
X154358857Y-99037715D01*
X155558857Y-99666286D02*
X154758857Y-99666286D01*
X154358857Y-99666286D02*
X154416000Y-99609143D01*
X154473143Y-99666286D01*
X154416000Y-99723429D01*
X154358857Y-99666286D01*
X154473143Y-99666286D01*
X154758857Y-100237715D02*
X155558857Y-100237715D01*
X154873143Y-100237715D02*
X154816000Y-100294858D01*
X154758857Y-100409144D01*
X154758857Y-100580572D01*
X154816000Y-100694858D01*
X154930286Y-100752001D01*
X155558857Y-100752001D01*
X155558857Y-101837715D02*
X154358857Y-101837715D01*
X155501714Y-101837715D02*
X155558857Y-101723429D01*
X155558857Y-101494858D01*
X155501714Y-101380572D01*
X155444571Y-101323429D01*
X155330286Y-101266286D01*
X154987429Y-101266286D01*
X154873143Y-101323429D01*
X154816000Y-101380572D01*
X154758857Y-101494858D01*
X154758857Y-101723429D01*
X154816000Y-101837715D01*
X155501714Y-102352000D02*
X155558857Y-102466286D01*
X155558857Y-102694858D01*
X155501714Y-102809143D01*
X155387429Y-102866286D01*
X155330286Y-102866286D01*
X155216000Y-102809143D01*
X155158857Y-102694858D01*
X155158857Y-102523429D01*
X155101714Y-102409143D01*
X154987429Y-102352000D01*
X154930286Y-102352000D01*
X154816000Y-102409143D01*
X154758857Y-102523429D01*
X154758857Y-102694858D01*
X154816000Y-102809143D01*
X157438857Y-92494858D02*
X156238857Y-92494858D01*
X156238857Y-92780573D01*
X156296000Y-92952001D01*
X156410286Y-93066287D01*
X156524571Y-93123430D01*
X156753143Y-93180573D01*
X156924571Y-93180573D01*
X157153143Y-93123430D01*
X157267429Y-93066287D01*
X157381714Y-92952001D01*
X157438857Y-92780573D01*
X157438857Y-92494858D01*
X157381714Y-94152001D02*
X157438857Y-94037715D01*
X157438857Y-93809144D01*
X157381714Y-93694858D01*
X157267429Y-93637715D01*
X156810286Y-93637715D01*
X156696000Y-93694858D01*
X156638857Y-93809144D01*
X156638857Y-94037715D01*
X156696000Y-94152001D01*
X156810286Y-94209144D01*
X156924571Y-94209144D01*
X157038857Y-93637715D01*
X157438857Y-94723429D02*
X156238857Y-94723429D01*
X156696000Y-94723429D02*
X156638857Y-94837715D01*
X156638857Y-95066286D01*
X156696000Y-95180572D01*
X156753143Y-95237715D01*
X156867429Y-95294858D01*
X157210286Y-95294858D01*
X157324571Y-95237715D01*
X157381714Y-95180572D01*
X157438857Y-95066286D01*
X157438857Y-94837715D01*
X157381714Y-94723429D01*
X156638857Y-96323429D02*
X157438857Y-96323429D01*
X156638857Y-95809143D02*
X157267429Y-95809143D01*
X157381714Y-95866286D01*
X157438857Y-95980572D01*
X157438857Y-96152000D01*
X157381714Y-96266286D01*
X157324571Y-96323429D01*
X156638857Y-97409143D02*
X157610286Y-97409143D01*
X157724571Y-97352000D01*
X157781714Y-97294857D01*
X157838857Y-97180572D01*
X157838857Y-97009143D01*
X157781714Y-96894857D01*
X157381714Y-97409143D02*
X157438857Y-97294857D01*
X157438857Y-97066286D01*
X157381714Y-96952000D01*
X157324571Y-96894857D01*
X157210286Y-96837714D01*
X156867429Y-96837714D01*
X156753143Y-96894857D01*
X156696000Y-96952000D01*
X156638857Y-97066286D01*
X156638857Y-97294857D01*
X156696000Y-97409143D01*
X157438857Y-98894857D02*
X156238857Y-98894857D01*
X157096000Y-99294857D01*
X156238857Y-99694857D01*
X157438857Y-99694857D01*
X157438857Y-100437715D02*
X157381714Y-100323429D01*
X157324571Y-100266286D01*
X157210286Y-100209143D01*
X156867429Y-100209143D01*
X156753143Y-100266286D01*
X156696000Y-100323429D01*
X156638857Y-100437715D01*
X156638857Y-100609143D01*
X156696000Y-100723429D01*
X156753143Y-100780572D01*
X156867429Y-100837715D01*
X157210286Y-100837715D01*
X157324571Y-100780572D01*
X157381714Y-100723429D01*
X157438857Y-100609143D01*
X157438857Y-100437715D01*
X157438857Y-101866286D02*
X156238857Y-101866286D01*
X157381714Y-101866286D02*
X157438857Y-101752000D01*
X157438857Y-101523429D01*
X157381714Y-101409143D01*
X157324571Y-101352000D01*
X157210286Y-101294857D01*
X156867429Y-101294857D01*
X156753143Y-101352000D01*
X156696000Y-101409143D01*
X156638857Y-101523429D01*
X156638857Y-101752000D01*
X156696000Y-101866286D01*
X156638857Y-102952000D02*
X157438857Y-102952000D01*
X156638857Y-102437714D02*
X157267429Y-102437714D01*
X157381714Y-102494857D01*
X157438857Y-102609143D01*
X157438857Y-102780571D01*
X157381714Y-102894857D01*
X157324571Y-102952000D01*
X157438857Y-103694857D02*
X157381714Y-103580571D01*
X157267429Y-103523428D01*
X156238857Y-103523428D01*
X157381714Y-104609142D02*
X157438857Y-104494856D01*
X157438857Y-104266285D01*
X157381714Y-104151999D01*
X157267429Y-104094856D01*
X156810286Y-104094856D01*
X156696000Y-104151999D01*
X156638857Y-104266285D01*
X156638857Y-104494856D01*
X156696000Y-104609142D01*
X156810286Y-104666285D01*
X156924571Y-104666285D01*
X157038857Y-104094856D01*
X143771430Y-87595143D02*
X143371430Y-88166571D01*
X143085715Y-87595143D02*
X143085715Y-88795143D01*
X143542858Y-88795143D01*
X143657144Y-88738000D01*
X143714287Y-88680857D01*
X143771430Y-88566571D01*
X143771430Y-88395143D01*
X143714287Y-88280857D01*
X143657144Y-88223714D01*
X143542858Y-88166571D01*
X143085715Y-88166571D01*
X144285715Y-88223714D02*
X144685715Y-88223714D01*
X144857144Y-87595143D02*
X144285715Y-87595143D01*
X144285715Y-88795143D01*
X144857144Y-88795143D01*
X145200001Y-88795143D02*
X145600001Y-87595143D01*
X146000001Y-88795143D01*
X147257143Y-87938000D02*
X147828572Y-87938000D01*
X147142858Y-87595143D02*
X147542858Y-88795143D01*
X147942858Y-87595143D01*
X150114286Y-88680857D02*
X150171429Y-88738000D01*
X150285715Y-88795143D01*
X150571429Y-88795143D01*
X150685715Y-88738000D01*
X150742858Y-88680857D01*
X150800001Y-88566571D01*
X150800001Y-88452286D01*
X150742858Y-88280857D01*
X150057144Y-87595143D01*
X150800001Y-87595143D01*
X151542858Y-88795143D02*
X151657143Y-88795143D01*
X151771429Y-88738000D01*
X151828572Y-88680857D01*
X151885715Y-88566571D01*
X151942858Y-88338000D01*
X151942858Y-88052286D01*
X151885715Y-87823714D01*
X151828572Y-87709429D01*
X151771429Y-87652286D01*
X151657143Y-87595143D01*
X151542858Y-87595143D01*
X151428572Y-87652286D01*
X151371429Y-87709429D01*
X151314286Y-87823714D01*
X151257143Y-88052286D01*
X151257143Y-88338000D01*
X151314286Y-88566571D01*
X151371429Y-88680857D01*
X151428572Y-88738000D01*
X151542858Y-88795143D01*
X153085715Y-87595143D02*
X152400000Y-87595143D01*
X152742858Y-87595143D02*
X152742858Y-88795143D01*
X152628572Y-88623714D01*
X152514286Y-88509429D01*
X152400000Y-88452286D01*
X153485715Y-88795143D02*
X154285715Y-88795143D01*
X153771429Y-87595143D01*
X154742857Y-88052286D02*
X155657143Y-88052286D01*
X156457143Y-88795143D02*
X156571428Y-88795143D01*
X156685714Y-88738000D01*
X156742857Y-88680857D01*
X156800000Y-88566571D01*
X156857143Y-88338000D01*
X156857143Y-88052286D01*
X156800000Y-87823714D01*
X156742857Y-87709429D01*
X156685714Y-87652286D01*
X156571428Y-87595143D01*
X156457143Y-87595143D01*
X156342857Y-87652286D01*
X156285714Y-87709429D01*
X156228571Y-87823714D01*
X156171428Y-88052286D01*
X156171428Y-88338000D01*
X156228571Y-88566571D01*
X156285714Y-88680857D01*
X156342857Y-88738000D01*
X156457143Y-88795143D01*
X157942857Y-88795143D02*
X157371428Y-88795143D01*
X157314285Y-88223714D01*
X157371428Y-88280857D01*
X157485714Y-88338000D01*
X157771428Y-88338000D01*
X157885714Y-88280857D01*
X157942857Y-88223714D01*
X158000000Y-88109429D01*
X158000000Y-87823714D01*
X157942857Y-87709429D01*
X157885714Y-87652286D01*
X157771428Y-87595143D01*
X157485714Y-87595143D01*
X157371428Y-87652286D01*
X157314285Y-87709429D01*
X158514285Y-88052286D02*
X159428571Y-88052286D01*
X160628571Y-87595143D02*
X159942856Y-87595143D01*
X160285714Y-87595143D02*
X160285714Y-88795143D01*
X160171428Y-88623714D01*
X160057142Y-88509429D01*
X159942856Y-88452286D01*
X161771428Y-87595143D02*
X161085713Y-87595143D01*
X161428571Y-87595143D02*
X161428571Y-88795143D01*
X161314285Y-88623714D01*
X161199999Y-88509429D01*
X161085713Y-88452286D01*
D12*
X161833000Y-99247286D02*
X161775857Y-99133000D01*
X161775857Y-98961571D01*
X161833000Y-98790143D01*
X161947286Y-98675857D01*
X162061571Y-98618714D01*
X162290143Y-98561571D01*
X162461571Y-98561571D01*
X162690143Y-98618714D01*
X162804429Y-98675857D01*
X162918714Y-98790143D01*
X162975857Y-98961571D01*
X162975857Y-99075857D01*
X162918714Y-99247286D01*
X162861571Y-99304429D01*
X162461571Y-99304429D01*
X162461571Y-99075857D01*
X161775857Y-95605715D02*
X161775857Y-96291429D01*
X162975857Y-95948572D02*
X161775857Y-95948572D01*
X161775857Y-96577144D02*
X162975857Y-97377144D01*
X161775857Y-97377144D02*
X162975857Y-96577144D01*
X162975857Y-93780001D02*
X162404429Y-93380001D01*
X162975857Y-93094286D02*
X161775857Y-93094286D01*
X161775857Y-93551429D01*
X161833000Y-93665715D01*
X161890143Y-93722858D01*
X162004429Y-93780001D01*
X162175857Y-93780001D01*
X162290143Y-93722858D01*
X162347286Y-93665715D01*
X162404429Y-93551429D01*
X162404429Y-93094286D01*
X161775857Y-94180001D02*
X162975857Y-94980001D01*
X161775857Y-94980001D02*
X162975857Y-94180001D01*
M02*
