G04 #@! TF.FileFunction,Profile,NP*
%FSLAX46Y46*%
G04 Gerber Fmt 4.6, Leading zero omitted, Abs format (unit mm)*
G04 Created by KiCad (PCBNEW 4.0.2-stable) date 5/11/2017 12:34:01 PM*
%MOMM*%
G01*
G04 APERTURE LIST*
%ADD10C,0.100000*%
%ADD11C,0.508000*%
G04 APERTURE END LIST*
D10*
D11*
X121920000Y-50800000D02*
X182880000Y-50800000D01*
X120650000Y-151130000D02*
X120650000Y-52070000D01*
X184150000Y-151130000D02*
X184150000Y-52070000D01*
X121920000Y-152400000D02*
X182880000Y-152400000D01*
X182880000Y-152400000D02*
G75*
G03X184150000Y-151130000I0J1270000D01*
G01*
X120650000Y-151130000D02*
G75*
G03X121920000Y-152400000I1270000J0D01*
G01*
X184150000Y-52070000D02*
G75*
G03X182880000Y-50800000I-1270000J0D01*
G01*
X121920000Y-50800000D02*
G75*
G03X120650000Y-52070000I0J-1270000D01*
G01*
M02*
