M48
;DRILL file {KiCad 4.0.2-stable} date 5/11/2017 12:34:03 PM
;FORMAT={-:-/ absolute / inch / decimal}
FMAT,2
INCH,TZ
T1C0.016
T2C0.020
T3C0.024
T4C0.028
T5C0.034
T6C0.035
T7C0.035
T8C0.040
T9C0.075
T10C0.086
T11C0.091
T12C0.110
T13C0.118
T14C0.130
T15C0.170
%
G90
G05
M72
T1
X5.175Y-3.925
X5.215Y-3.615
X5.225Y-3.725
X5.275Y-3.525
X5.35Y-3.325
X5.425Y-3.15
X6.05Y-2.725
X6.05Y-2.85
X6.05Y-3.05
X6.075Y-3.925
X6.225Y-4.075
X6.35Y-3.86
X6.375Y-3.325
X6.375Y-3.425
X6.375Y-3.525
T2
X7.12Y-3.495
T3
X4.925Y-2.7872
X4.925Y-3.0628
X5.1Y-2.7872
X5.1Y-3.0628
X5.3372Y-5.475
X5.6128Y-5.475
X6.575Y-4.1122
X6.575Y-4.3878
X6.7Y-4.1122
X6.7Y-4.3878
T4
X7.0258Y-4.2
X7.1242Y-4.2
T5
X6.475Y-3.425
T6
X6.6888Y-5.275
X7.1612Y-5.275
T7
X5.475Y-5.75
X5.575Y-5.75
X6.4Y-4.175
X6.4Y-4.275
T8
X4.85Y-3.375
X4.85Y-3.475
X4.85Y-3.575
X4.85Y-3.675
X4.85Y-3.775
X4.85Y-3.875
X4.85Y-3.975
X4.85Y-4.075
X4.85Y-4.175
X4.85Y-4.275
X4.9009Y-2.5159
X4.9009Y-2.6341
X4.9619Y-5.5009
X4.9619Y-5.6191
X5.0191Y-2.5159
X5.0191Y-2.6341
X5.08Y-5.5009
X5.08Y-5.6191
X5.1981Y-5.5009
X5.1981Y-5.6191
X5.225Y-2.85
X5.225Y-2.95
X5.225Y-3.05
X5.3719Y-2.5159
X5.3719Y-2.6341
X5.49Y-2.5159
X5.49Y-2.6341
X5.57Y-4.745
X5.57Y-4.845
X5.57Y-4.945
X5.57Y-5.045
X5.57Y-5.145
X5.6081Y-2.5159
X5.6081Y-2.6341
X5.625Y-2.85
X5.625Y-2.95
X5.625Y-3.05
X5.65Y-3.375
X5.65Y-3.475
X5.65Y-3.575
X5.65Y-3.675
X5.65Y-3.775
X5.65Y-3.875
X5.65Y-3.975
X5.65Y-4.075
X5.65Y-4.175
X5.65Y-4.275
X6.375Y-2.85
X6.375Y-2.95
X6.375Y-3.05
X6.3909Y-2.5159
X6.3909Y-2.6341
X6.475Y-3.225
X6.475Y-3.325
X6.475Y-3.525
X6.475Y-3.625
X6.475Y-3.725
X6.475Y-3.825
X6.475Y-3.925
X6.5Y-4.5
X6.5Y-4.6
X6.5Y-4.7
X6.5Y-4.8
X6.5Y-4.9
X6.5091Y-2.5159
X6.5091Y-2.6341
X6.775Y-2.85
X6.775Y-2.95
X6.775Y-3.05
X6.8569Y-2.5159
X6.8569Y-2.6341
X6.92Y-4.5
X6.975Y-2.5159
X6.975Y-2.6341
X6.975Y-3.225
X6.975Y-3.325
X6.975Y-3.425
X6.975Y-3.525
X6.975Y-3.625
X6.975Y-3.725
X6.975Y-3.825
X6.975Y-3.925
X7.0931Y-2.5159
X7.0931Y-2.6341
T9
X6.95Y-5.515
X6.95Y-5.7
X6.95Y-5.885
T10
X4.905Y-4.755
X5.535Y-5.285
X6.54Y-5.06
X7.06Y-4.54
T11
X6.6541Y-5.6022
T12
X6.475Y-5.7301
T13
X4.96Y-2.3459
X5.08Y-5.7891
X5.49Y-2.3459
X6.45Y-2.3459
X6.975Y-2.3459
T14
X6.475Y-5.4738
T15
X6.Y-2.375
X6.Y-5.625
T0
M30
