G04 #@! TF.FileFunction,Legend,Bot*
%FSLAX46Y46*%
G04 Gerber Fmt 4.6, Leading zero omitted, Abs format (unit mm)*
G04 Created by KiCad (PCBNEW 4.0.2-stable) date 5/11/2017 12:34:01 PM*
%MOMM*%
G01*
G04 APERTURE LIST*
%ADD10C,0.100000*%
%ADD11C,0.250000*%
%ADD12C,0.200000*%
%ADD13C,0.300000*%
%ADD14C,0.150000*%
G04 APERTURE END LIST*
D10*
D11*
X158750000Y-53975000D02*
X158750000Y-149225000D01*
D12*
X144780000Y-51435000D02*
X144780000Y-151765000D01*
X160020000Y-51435000D02*
X160020000Y-151765000D01*
D13*
X165401429Y-52244762D02*
X165401429Y-53863810D01*
X165306190Y-54054286D01*
X165210952Y-54149524D01*
X165020476Y-54244762D01*
X164639524Y-54244762D01*
X164449048Y-54149524D01*
X164353809Y-54054286D01*
X164258571Y-53863810D01*
X164258571Y-52244762D01*
X163306191Y-54244762D02*
X163306191Y-52244762D01*
X162544286Y-52244762D01*
X162353810Y-52340000D01*
X162258571Y-52435238D01*
X162163333Y-52625714D01*
X162163333Y-52911429D01*
X162258571Y-53101905D01*
X162353810Y-53197143D01*
X162544286Y-53292381D01*
X163306191Y-53292381D01*
X129491905Y-54244762D02*
X129491905Y-52244762D01*
X129015714Y-52244762D01*
X128730000Y-52340000D01*
X128539524Y-52530476D01*
X128444285Y-52720952D01*
X128349047Y-53101905D01*
X128349047Y-53387619D01*
X128444285Y-53768571D01*
X128539524Y-53959048D01*
X128730000Y-54149524D01*
X129015714Y-54244762D01*
X129491905Y-54244762D01*
X127110952Y-52244762D02*
X126730000Y-52244762D01*
X126539524Y-52340000D01*
X126349047Y-52530476D01*
X126253809Y-52911429D01*
X126253809Y-53578095D01*
X126349047Y-53959048D01*
X126539524Y-54149524D01*
X126730000Y-54244762D01*
X127110952Y-54244762D01*
X127301428Y-54149524D01*
X127491905Y-53959048D01*
X127587143Y-53578095D01*
X127587143Y-52911429D01*
X127491905Y-52530476D01*
X127301428Y-52340000D01*
X127110952Y-52244762D01*
X125587143Y-52244762D02*
X125110952Y-54244762D01*
X124730000Y-52816190D01*
X124349047Y-54244762D01*
X123872857Y-52244762D01*
X123110953Y-54244762D02*
X123110953Y-52244762D01*
X121968095Y-54244762D01*
X121968095Y-52244762D01*
X143953810Y-54149524D02*
X143668095Y-54244762D01*
X143191905Y-54244762D01*
X143001429Y-54149524D01*
X142906191Y-54054286D01*
X142810952Y-53863810D01*
X142810952Y-53673333D01*
X142906191Y-53482857D01*
X143001429Y-53387619D01*
X143191905Y-53292381D01*
X143572857Y-53197143D01*
X143763333Y-53101905D01*
X143858572Y-53006667D01*
X143953810Y-52816190D01*
X143953810Y-52625714D01*
X143858572Y-52435238D01*
X143763333Y-52340000D01*
X143572857Y-52244762D01*
X143096667Y-52244762D01*
X142810952Y-52340000D01*
X141953810Y-53197143D02*
X141287143Y-53197143D01*
X141001429Y-54244762D02*
X141953810Y-54244762D01*
X141953810Y-52244762D01*
X141001429Y-52244762D01*
X140144286Y-54244762D02*
X140144286Y-52244762D01*
X139001428Y-54244762D01*
X139001428Y-52244762D01*
X138144286Y-54149524D02*
X137858571Y-54244762D01*
X137382381Y-54244762D01*
X137191905Y-54149524D01*
X137096667Y-54054286D01*
X137001428Y-53863810D01*
X137001428Y-53673333D01*
X137096667Y-53482857D01*
X137191905Y-53387619D01*
X137382381Y-53292381D01*
X137763333Y-53197143D01*
X137953809Y-53101905D01*
X138049048Y-53006667D01*
X138144286Y-52816190D01*
X138144286Y-52625714D01*
X138049048Y-52435238D01*
X137953809Y-52340000D01*
X137763333Y-52244762D01*
X137287143Y-52244762D01*
X137001428Y-52340000D01*
X135763333Y-52244762D02*
X135382381Y-52244762D01*
X135191905Y-52340000D01*
X135001428Y-52530476D01*
X134906190Y-52911429D01*
X134906190Y-53578095D01*
X135001428Y-53959048D01*
X135191905Y-54149524D01*
X135382381Y-54244762D01*
X135763333Y-54244762D01*
X135953809Y-54149524D01*
X136144286Y-53959048D01*
X136239524Y-53578095D01*
X136239524Y-52911429D01*
X136144286Y-52530476D01*
X135953809Y-52340000D01*
X135763333Y-52244762D01*
X132906190Y-54244762D02*
X133572857Y-53292381D01*
X134049048Y-54244762D02*
X134049048Y-52244762D01*
X133287143Y-52244762D01*
X133096667Y-52340000D01*
X133001428Y-52435238D01*
X132906190Y-52625714D01*
X132906190Y-52911429D01*
X133001428Y-53101905D01*
X133096667Y-53197143D01*
X133287143Y-53292381D01*
X134049048Y-53292381D01*
X181688810Y-54244762D02*
X181688810Y-52244762D01*
X181022143Y-53673333D01*
X180355476Y-52244762D01*
X180355476Y-54244762D01*
X179022143Y-52244762D02*
X178641191Y-52244762D01*
X178450715Y-52340000D01*
X178260238Y-52530476D01*
X178165000Y-52911429D01*
X178165000Y-53578095D01*
X178260238Y-53959048D01*
X178450715Y-54149524D01*
X178641191Y-54244762D01*
X179022143Y-54244762D01*
X179212619Y-54149524D01*
X179403096Y-53959048D01*
X179498334Y-53578095D01*
X179498334Y-52911429D01*
X179403096Y-52530476D01*
X179212619Y-52340000D01*
X179022143Y-52244762D01*
X177593572Y-52244762D02*
X176450715Y-52244762D01*
X177022143Y-54244762D02*
X177022143Y-52244762D01*
X175403095Y-52244762D02*
X175022143Y-52244762D01*
X174831667Y-52340000D01*
X174641190Y-52530476D01*
X174545952Y-52911429D01*
X174545952Y-53578095D01*
X174641190Y-53959048D01*
X174831667Y-54149524D01*
X175022143Y-54244762D01*
X175403095Y-54244762D01*
X175593571Y-54149524D01*
X175784048Y-53959048D01*
X175879286Y-53578095D01*
X175879286Y-52911429D01*
X175784048Y-52530476D01*
X175593571Y-52340000D01*
X175403095Y-52244762D01*
X172545952Y-54244762D02*
X173212619Y-53292381D01*
X173688810Y-54244762D02*
X173688810Y-52244762D01*
X172926905Y-52244762D01*
X172736429Y-52340000D01*
X172641190Y-52435238D01*
X172545952Y-52625714D01*
X172545952Y-52911429D01*
X172641190Y-53101905D01*
X172736429Y-53197143D01*
X172926905Y-53292381D01*
X173688810Y-53292381D01*
D11*
X146050000Y-149225000D02*
X146050000Y-53975000D01*
X158750000Y-149225000D02*
X146050000Y-149225000D01*
X146050000Y-53975000D02*
X158750000Y-53975000D01*
D14*
X129540000Y-76095000D02*
X129540000Y-76795000D01*
X129540000Y-72495000D02*
X129540000Y-71795000D01*
X130540000Y-76095000D02*
X130540000Y-72495000D01*
X130540000Y-72495000D02*
X128540000Y-72495000D01*
X128540000Y-72495000D02*
X128540000Y-76095000D01*
X128540000Y-76095000D02*
X130540000Y-76095000D01*
X125095000Y-76095000D02*
X125095000Y-76795000D01*
X125095000Y-72495000D02*
X125095000Y-71795000D01*
X126095000Y-76095000D02*
X126095000Y-72495000D01*
X126095000Y-72495000D02*
X124095000Y-72495000D01*
X124095000Y-72495000D02*
X124095000Y-76095000D01*
X124095000Y-76095000D02*
X126095000Y-76095000D01*
X160655000Y-77470000D02*
X160655000Y-72390000D01*
X170815000Y-80010000D02*
X163195000Y-80010000D01*
X173355000Y-72390000D02*
X173355000Y-77470000D01*
X163195000Y-69850000D02*
X170815000Y-69850000D01*
X160655000Y-72390000D02*
G75*
G02X163195000Y-69850000I2540000J0D01*
G01*
X170815000Y-69850000D02*
G75*
G02X173355000Y-72390000I0J-2540000D01*
G01*
X173355000Y-77470000D02*
G75*
G02X170815000Y-80010000I-2540000J0D01*
G01*
X163195000Y-80010000D02*
G75*
G02X160655000Y-77470000I0J2540000D01*
G01*
X131445000Y-77470000D02*
X131445000Y-72390000D01*
X141605000Y-80010000D02*
X133985000Y-80010000D01*
X144145000Y-72390000D02*
X144145000Y-77470000D01*
X133985000Y-69850000D02*
X141605000Y-69850000D01*
X131445000Y-72390000D02*
G75*
G02X133985000Y-69850000I2540000J0D01*
G01*
X141605000Y-69850000D02*
G75*
G02X144145000Y-72390000I0J-2540000D01*
G01*
X144145000Y-77470000D02*
G75*
G02X141605000Y-80010000I-2540000J0D01*
G01*
X133985000Y-80010000D02*
G75*
G02X131445000Y-77470000I0J2540000D01*
G01*
X129706666Y-69667381D02*
X130040000Y-69191190D01*
X130278095Y-69667381D02*
X130278095Y-68667381D01*
X129897142Y-68667381D01*
X129801904Y-68715000D01*
X129754285Y-68762619D01*
X129706666Y-68857857D01*
X129706666Y-69000714D01*
X129754285Y-69095952D01*
X129801904Y-69143571D01*
X129897142Y-69191190D01*
X130278095Y-69191190D01*
X128754285Y-69667381D02*
X129325714Y-69667381D01*
X129040000Y-69667381D02*
X129040000Y-68667381D01*
X129135238Y-68810238D01*
X129230476Y-68905476D01*
X129325714Y-68953095D01*
X125261666Y-69667381D02*
X125595000Y-69191190D01*
X125833095Y-69667381D02*
X125833095Y-68667381D01*
X125452142Y-68667381D01*
X125356904Y-68715000D01*
X125309285Y-68762619D01*
X125261666Y-68857857D01*
X125261666Y-69000714D01*
X125309285Y-69095952D01*
X125356904Y-69143571D01*
X125452142Y-69191190D01*
X125833095Y-69191190D01*
X124880714Y-68762619D02*
X124833095Y-68715000D01*
X124737857Y-68667381D01*
X124499761Y-68667381D01*
X124404523Y-68715000D01*
X124356904Y-68762619D01*
X124309285Y-68857857D01*
X124309285Y-68953095D01*
X124356904Y-69095952D01*
X124928333Y-69667381D01*
X124309285Y-69667381D01*
X167719286Y-75096667D02*
X167243095Y-75096667D01*
X167814524Y-75382381D02*
X167481191Y-74382381D01*
X167147857Y-75382381D01*
X166385952Y-74382381D02*
X166576429Y-74382381D01*
X166671667Y-74430000D01*
X166719286Y-74477619D01*
X166814524Y-74620476D01*
X166862143Y-74810952D01*
X166862143Y-75191905D01*
X166814524Y-75287143D01*
X166766905Y-75334762D01*
X166671667Y-75382381D01*
X166481190Y-75382381D01*
X166385952Y-75334762D01*
X166338333Y-75287143D01*
X166290714Y-75191905D01*
X166290714Y-74953810D01*
X166338333Y-74858571D01*
X166385952Y-74810952D01*
X166481190Y-74763333D01*
X166671667Y-74763333D01*
X166766905Y-74810952D01*
X166814524Y-74858571D01*
X166862143Y-74953810D01*
X170656238Y-71842381D02*
X170465761Y-71842381D01*
X170370523Y-71890000D01*
X170275285Y-71985238D01*
X170227666Y-72175714D01*
X170227666Y-72509048D01*
X170275285Y-72699524D01*
X170370523Y-72794762D01*
X170465761Y-72842381D01*
X170656238Y-72842381D01*
X170751476Y-72794762D01*
X170846714Y-72699524D01*
X170894333Y-72509048D01*
X170894333Y-72175714D01*
X170846714Y-71985238D01*
X170751476Y-71890000D01*
X170656238Y-71842381D01*
X170299095Y-74430000D02*
X170394333Y-74382381D01*
X170537190Y-74382381D01*
X170680048Y-74430000D01*
X170775286Y-74525238D01*
X170822905Y-74620476D01*
X170870524Y-74810952D01*
X170870524Y-74953810D01*
X170822905Y-75144286D01*
X170775286Y-75239524D01*
X170680048Y-75334762D01*
X170537190Y-75382381D01*
X170441952Y-75382381D01*
X170299095Y-75334762D01*
X170251476Y-75287143D01*
X170251476Y-74953810D01*
X170441952Y-74953810D01*
X170941952Y-77541429D02*
X170180047Y-77541429D01*
X170560999Y-77922381D02*
X170560999Y-77160476D01*
X164155381Y-72842381D02*
X164155381Y-71842381D01*
X163679191Y-72175714D02*
X163679191Y-72842381D01*
X163679191Y-72270952D02*
X163631572Y-72223333D01*
X163536334Y-72175714D01*
X163393476Y-72175714D01*
X163298238Y-72223333D01*
X163250619Y-72318571D01*
X163250619Y-72842381D01*
X163187095Y-74430000D02*
X163282333Y-74382381D01*
X163425190Y-74382381D01*
X163568048Y-74430000D01*
X163663286Y-74525238D01*
X163710905Y-74620476D01*
X163758524Y-74810952D01*
X163758524Y-74953810D01*
X163710905Y-75144286D01*
X163663286Y-75239524D01*
X163568048Y-75334762D01*
X163425190Y-75382381D01*
X163329952Y-75382381D01*
X163187095Y-75334762D01*
X163139476Y-75287143D01*
X163139476Y-74953810D01*
X163329952Y-74953810D01*
X163829952Y-77541429D02*
X163068047Y-77541429D01*
X163448999Y-77922381D02*
X163448999Y-77160476D01*
X138509286Y-75096667D02*
X138033095Y-75096667D01*
X138604524Y-75382381D02*
X138271191Y-74382381D01*
X137937857Y-75382381D01*
X137128333Y-74382381D02*
X137604524Y-74382381D01*
X137652143Y-74858571D01*
X137604524Y-74810952D01*
X137509286Y-74763333D01*
X137271190Y-74763333D01*
X137175952Y-74810952D01*
X137128333Y-74858571D01*
X137080714Y-74953810D01*
X137080714Y-75191905D01*
X137128333Y-75287143D01*
X137175952Y-75334762D01*
X137271190Y-75382381D01*
X137509286Y-75382381D01*
X137604524Y-75334762D01*
X137652143Y-75287143D01*
X141446238Y-71842381D02*
X141255761Y-71842381D01*
X141160523Y-71890000D01*
X141065285Y-71985238D01*
X141017666Y-72175714D01*
X141017666Y-72509048D01*
X141065285Y-72699524D01*
X141160523Y-72794762D01*
X141255761Y-72842381D01*
X141446238Y-72842381D01*
X141541476Y-72794762D01*
X141636714Y-72699524D01*
X141684333Y-72509048D01*
X141684333Y-72175714D01*
X141636714Y-71985238D01*
X141541476Y-71890000D01*
X141446238Y-71842381D01*
X141089095Y-74430000D02*
X141184333Y-74382381D01*
X141327190Y-74382381D01*
X141470048Y-74430000D01*
X141565286Y-74525238D01*
X141612905Y-74620476D01*
X141660524Y-74810952D01*
X141660524Y-74953810D01*
X141612905Y-75144286D01*
X141565286Y-75239524D01*
X141470048Y-75334762D01*
X141327190Y-75382381D01*
X141231952Y-75382381D01*
X141089095Y-75334762D01*
X141041476Y-75287143D01*
X141041476Y-74953810D01*
X141231952Y-74953810D01*
X141731952Y-77541429D02*
X140970047Y-77541429D01*
X141350999Y-77922381D02*
X141350999Y-77160476D01*
X134945381Y-72842381D02*
X134945381Y-71842381D01*
X134469191Y-72175714D02*
X134469191Y-72842381D01*
X134469191Y-72270952D02*
X134421572Y-72223333D01*
X134326334Y-72175714D01*
X134183476Y-72175714D01*
X134088238Y-72223333D01*
X134040619Y-72318571D01*
X134040619Y-72842381D01*
X133977095Y-74430000D02*
X134072333Y-74382381D01*
X134215190Y-74382381D01*
X134358048Y-74430000D01*
X134453286Y-74525238D01*
X134500905Y-74620476D01*
X134548524Y-74810952D01*
X134548524Y-74953810D01*
X134500905Y-75144286D01*
X134453286Y-75239524D01*
X134358048Y-75334762D01*
X134215190Y-75382381D01*
X134119952Y-75382381D01*
X133977095Y-75334762D01*
X133929476Y-75287143D01*
X133929476Y-74953810D01*
X134119952Y-74953810D01*
X134619952Y-77541429D02*
X133858047Y-77541429D01*
X134238999Y-77922381D02*
X134238999Y-77160476D01*
M02*
